<svg width="45" height="47" viewBox="0 0 45 47" fill="none" xmlns="http://www.w3.org/2000/svg">
<path d="M40.1786 0.0712891H4.82143C2.1596 0.0712891 0 2.28977 0 5.02417V41.3453C0 44.0797 2.1596 46.2981 4.82143 46.2981H40.1786C42.8404 46.2981 45 44.0797 45 41.3453V5.02417C45 2.28977 42.8404 0.0712891 40.1786 0.0712891ZM35.2667 16.4571C35.2868 16.746 35.2868 17.0452 35.2868 17.3341C35.2868 26.2803 28.6574 36.5884 16.5435 36.5884C12.8069 36.5884 9.34152 35.474 6.42857 33.5548C6.96094 33.6167 7.47321 33.6374 8.01562 33.6374C11.0993 33.6374 13.9319 32.5642 16.192 30.7482C13.2991 30.6863 10.8683 28.7361 10.0346 26.0533C11.0491 26.208 11.9632 26.208 13.0078 25.9294C9.99442 25.3 7.73437 22.5759 7.73437 19.2843V19.2018C8.60826 19.7074 9.63281 20.0169 10.7076 20.0582C9.804 19.4408 9.06326 18.6032 8.55148 17.6201C8.03969 16.6371 7.77278 15.5391 7.77455 14.4243C7.77455 13.1655 8.09598 12.0098 8.66853 11.0089C11.9129 15.1157 16.7846 17.7985 22.2489 18.0874C21.3147 13.4957 24.6596 9.77067 28.6775 9.77067C30.5759 9.77067 32.2835 10.5858 33.4888 11.9066C34.9754 11.6177 36.4018 11.0502 37.6674 10.2763C37.1752 11.8447 36.1406 13.1655 34.7746 14.0013C36.1004 13.8568 37.3862 13.475 38.5714 12.9488C37.6775 14.3005 36.5525 15.4974 35.2667 16.4571Z" fill="white"/>
</svg>
